# NAME     : signal_200_50
# DATA     : 0
# AF2      : 0
# PRIORITY : 0

mc20_13TeV.545830.MGPy8EG_N2N3_Zh_200_50_1L20orXeFilt_MadSpin.deriv.DAOD_PHYS.e8566_a907_r14859_p6452
mc20_13TeV.545832.MGPy8EG_C1pN2_Wh_200_50_1L20orXe_MadSpin.deriv.DAOD_PHYS.e8566_a907_r14859_p6452
mc20_13TeV.545834.MGPy8EG_C1mN2_Wh_200_50_1L20orXe_MadSpin.deriv.DAOD_PHYS.e8566_a907_r14859_p6452