# NAME     : diboson
# DATA     : 0
# AF2      : 0
# PRIORITY : 0


#VV EWK
mc20_13TeV.700587.Sh_2212_lllljj.deriv.DAOD_PHYS.e8433_s3681_r13145_p6490
mc20_13TeV.700588.Sh_2212_lllvjj.deriv.DAOD_PHYS.e8433_s3681_r13145_p6490
mc20_13TeV.700589.Sh_2212_llvvjj_os.deriv.DAOD_PHYS.e8433_s3681_r13145_p6490
mc20_13TeV.700590.Sh_2212_llvvjj_ss.deriv.DAOD_PHYS.e8433_s3681_r13145_p6490
mc20_13TeV.700591.Sh_2212_lllljj_Int.deriv.DAOD_PHYS.e8433_s3681_r13145_p6490
mc20_13TeV.700592.Sh_2212_lllvjj_Int.deriv.DAOD_PHYS.e8433_s3681_r13145_p6490
mc20_13TeV.700593.Sh_2212_llvvjj_os_Int.deriv.DAOD_PHYS.e8433_s3681_r13145_p6490
mc20_13TeV.700594.Sh_2212_llvvjj_ss_Int.deriv.DAOD_PHYS.e8433_s3681_r13145_p6490

# VV QCD
mc20_13TeV.700600.Sh_2212_llll.deriv.DAOD_PHYS.e8433_s3681_r13145_p6490
mc20_13TeV.700601.Sh_2212_lllv.deriv.DAOD_PHYS.e8433_s3681_r13145_p6490
mc20_13TeV.700602.Sh_2212_llvv_os.deriv.DAOD_PHYS.e8433_s3681_r13145_p6490
mc20_13TeV.700603.Sh_2212_llvv_ss.deriv.DAOD_PHYS.e8433_s3681_r13145_p6490
mc20_13TeV.700604.Sh_2212_lvvv.deriv.DAOD_PHYS.e8433_s3681_r13145_p6490
mc20_13TeV.700605.Sh_2212_vvvv.deriv.DAOD_PHYS.e8433_s3681_r13145_p6490
