# NAME     : signal_800_0
# DATA     : 0
# AF2      : 0
# PRIORITY : 0

mc20_13TeV.545831.MGPy8EG_N2N3_Zh_800_0_1L20orXeFilt_MadSpin.deriv.DAOD_PHYS.e8566_a907_r14861_p6452
mc20_13TeV.545833.MGPy8EG_C1pN2_Wh_800_0_1L20orXe_MadSpin.deriv.DAOD_PHYS.e8566_a907_r14861_p6452
mc20_13TeV.545835.MGPy8EG_C1mN2_Wh_800_0_1L20orXe_MadSpin.deriv.DAOD_PHYS.e8566_a907_r14861_p6452